-- Merging decision tree log ---
manifest
ADDED from D:\Works Area\smartpos\app\src\main\AndroidManifest.xml:2:1-83:12
INJECTED from D:\Works Area\smartpos\app\src\main\AndroidManifest.xml:2:1-83:12
INJECTED from D:\Works Area\smartpos\app\src\main\AndroidManifest.xml:2:1-83:12
INJECTED from D:\Works Area\smartpos\app\src\main\AndroidManifest.xml:2:1-83:12
MERGED from [com.android.support:gridlayout-v7:18.0.0] C:\Users\sule\.gradle\caches\transforms-1\files-1.1\gridlayout-v7-18.0.0.aar\44fabc2b20b4d688c48d8470b35ca9d3\AndroidManifest.xml:16:1-20:12
MERGED from [com.mcxiaoke.volley:library-aar:1.0.0] C:\Users\sule\.gradle\caches\transforms-1\files-1.1\library-aar-1.0.0.aar\f990ba657af25606d5d26e42c592d0c4\AndroidManifest.xml:1:70-7:12
INJECTED from D:\Works Area\smartpos\app\src\main\AndroidManifest.xml:2:1-83:12
INJECTED from D:\Works Area\smartpos\app\src\main\AndroidManifest.xml:2:1-83:12
INJECTED from D:\Works Area\smartpos\app\src\main\AndroidManifest.xml:2:1-83:12
	package
		ADDED from D:\Works Area\smartpos\app\src\main\AndroidManifest.xml:3:5-30
		INJECTED from D:\Works Area\smartpos\app\src\main\AndroidManifest.xml
		INJECTED from D:\Works Area\smartpos\app\src\main\AndroidManifest.xml
	android:versionName
		ADDED from D:\Works Area\smartpos\app\src\main\AndroidManifest.xml:5:5-30
		INJECTED from D:\Works Area\smartpos\app\src\main\AndroidManifest.xml
		INJECTED from D:\Works Area\smartpos\app\src\main\AndroidManifest.xml
	xmlns:android
		ADDED from D:\Works Area\smartpos\app\src\main\AndroidManifest.xml:2:11-69
	android:versionCode
		ADDED from D:\Works Area\smartpos\app\src\main\AndroidManifest.xml:4:5-28
		INJECTED from D:\Works Area\smartpos\app\src\main\AndroidManifest.xml
		INJECTED from D:\Works Area\smartpos\app\src\main\AndroidManifest.xml
uses-permission#android.permission.BLUETOOTH
ADDED from D:\Works Area\smartpos\app\src\main\AndroidManifest.xml:6:5-67
	android:name
		ADDED from D:\Works Area\smartpos\app\src\main\AndroidManifest.xml:6:22-65
uses-permission#android.permission.INTERNET
ADDED from D:\Works Area\smartpos\app\src\main\AndroidManifest.xml:7:5-66
	android:name
		ADDED from D:\Works Area\smartpos\app\src\main\AndroidManifest.xml:7:22-64
uses-permission#android.permission.ACCESS_NETWORK_STATE
ADDED from D:\Works Area\smartpos\app\src\main\AndroidManifest.xml:8:5-78
	android:name
		ADDED from D:\Works Area\smartpos\app\src\main\AndroidManifest.xml:8:22-76
uses-permission#android.permission.REQUEST_INSTALL_PACKAGES
ADDED from D:\Works Area\smartpos\app\src\main\AndroidManifest.xml:9:5-82
	android:name
		ADDED from D:\Works Area\smartpos\app\src\main\AndroidManifest.xml:9:22-80
uses-permission#android.permission.INSTALL_PACKAGES
ADDED from D:\Works Area\smartpos\app\src\main\AndroidManifest.xml:10:5-74
	android:name
		ADDED from D:\Works Area\smartpos\app\src\main\AndroidManifest.xml:10:22-72
uses-permission#android.permission.WRITE_EXTERNAL_STORAGE
ADDED from D:\Works Area\smartpos\app\src\main\AndroidManifest.xml:11:5-80
	android:name
		ADDED from D:\Works Area\smartpos\app\src\main\AndroidManifest.xml:11:22-78
uses-sdk
ADDED from D:\Works Area\smartpos\app\src\main\AndroidManifest.xml:12:5-14:41
INJECTED from D:\Works Area\smartpos\app\src\main\AndroidManifest.xml:12:5-14:41
INJECTED from D:\Works Area\smartpos\app\src\main\AndroidManifest.xml:12:5-14:41
MERGED from [com.android.support:gridlayout-v7:18.0.0] C:\Users\sule\.gradle\caches\transforms-1\files-1.1\gridlayout-v7-18.0.0.aar\44fabc2b20b4d688c48d8470b35ca9d3\AndroidManifest.xml:18:5-42
MERGED from [com.android.support:gridlayout-v7:18.0.0] C:\Users\sule\.gradle\caches\transforms-1\files-1.1\gridlayout-v7-18.0.0.aar\44fabc2b20b4d688c48d8470b35ca9d3\AndroidManifest.xml:18:5-42
MERGED from [com.mcxiaoke.volley:library-aar:1.0.0] C:\Users\sule\.gradle\caches\transforms-1\files-1.1\library-aar-1.0.0.aar\f990ba657af25606d5d26e42c592d0c4\AndroidManifest.xml:3:5-72
MERGED from [com.mcxiaoke.volley:library-aar:1.0.0] C:\Users\sule\.gradle\caches\transforms-1\files-1.1\library-aar-1.0.0.aar\f990ba657af25606d5d26e42c592d0c4\AndroidManifest.xml:3:5-72
INJECTED from D:\Works Area\smartpos\app\src\main\AndroidManifest.xml:12:5-14:41
INJECTED from D:\Works Area\smartpos\app\src\main\AndroidManifest.xml:12:5-14:41
	android:targetSdkVersion
		ADDED from D:\Works Area\smartpos\app\src\main\AndroidManifest.xml:14:9-38
		INJECTED from D:\Works Area\smartpos\app\src\main\AndroidManifest.xml
		INJECTED from D:\Works Area\smartpos\app\src\main\AndroidManifest.xml
	android:minSdkVersion
		ADDED from D:\Works Area\smartpos\app\src\main\AndroidManifest.xml:13:9-34
		INJECTED from D:\Works Area\smartpos\app\src\main\AndroidManifest.xml
		INJECTED from D:\Works Area\smartpos\app\src\main\AndroidManifest.xml
application
ADDED from D:\Works Area\smartpos\app\src\main\AndroidManifest.xml:16:5-81:19
MERGED from [com.android.support:gridlayout-v7:18.0.0] C:\Users\sule\.gradle\caches\transforms-1\files-1.1\gridlayout-v7-18.0.0.aar\44fabc2b20b4d688c48d8470b35ca9d3\AndroidManifest.xml:19:5-20
MERGED from [com.android.support:gridlayout-v7:18.0.0] C:\Users\sule\.gradle\caches\transforms-1\files-1.1\gridlayout-v7-18.0.0.aar\44fabc2b20b4d688c48d8470b35ca9d3\AndroidManifest.xml:19:5-20
MERGED from [com.mcxiaoke.volley:library-aar:1.0.0] C:\Users\sule\.gradle\caches\transforms-1\files-1.1\library-aar-1.0.0.aar\f990ba657af25606d5d26e42c592d0c4\AndroidManifest.xml:5:5-19
MERGED from [com.mcxiaoke.volley:library-aar:1.0.0] C:\Users\sule\.gradle\caches\transforms-1\files-1.1\library-aar-1.0.0.aar\f990ba657af25606d5d26e42c592d0c4\AndroidManifest.xml:5:5-19
	android:label
		ADDED from D:\Works Area\smartpos\app\src\main\AndroidManifest.xml:19:9-41
	android:icon
		ADDED from D:\Works Area\smartpos\app\src\main\AndroidManifest.xml:20:9-45
	android:allowBackup
		ADDED from D:\Works Area\smartpos\app\src\main\AndroidManifest.xml:18:9-35
	android:theme
		ADDED from D:\Works Area\smartpos\app\src\main\AndroidManifest.xml:21:9-40
	android:name
		ADDED from D:\Works Area\smartpos\app\src\main\AndroidManifest.xml:17:9-47
activity#com.refresh.pos.ui.MainActivity
ADDED from D:\Works Area\smartpos\app\src\main\AndroidManifest.xml:22:9-26:20
	android:screenOrientation
		ADDED from D:\Works Area\smartpos\app\src\main\AndroidManifest.xml:25:13-49
	android:label
		ADDED from D:\Works Area\smartpos\app\src\main\AndroidManifest.xml:24:13-48
	android:name
		ADDED from D:\Works Area\smartpos\app\src\main\AndroidManifest.xml:23:13-59
activity#com.refresh.pos.ui.SplashScreenActivity
ADDED from D:\Works Area\smartpos\app\src\main\AndroidManifest.xml:27:9-36:20
	android:screenOrientation
		ADDED from D:\Works Area\smartpos\app\src\main\AndroidManifest.xml:30:13-51
	android:launchMode
		ADDED from D:\Works Area\smartpos\app\src\main\AndroidManifest.xml:29:13-43
	android:name
		ADDED from D:\Works Area\smartpos\app\src\main\AndroidManifest.xml:28:13-67
intent-filter#action:name:android.intent.action.MAIN+category:name:android.intent.category.LAUNCHER
ADDED from D:\Works Area\smartpos\app\src\main\AndroidManifest.xml:31:13-35:29
action#android.intent.action.MAIN
ADDED from D:\Works Area\smartpos\app\src\main\AndroidManifest.xml:32:17-69
	android:name
		ADDED from D:\Works Area\smartpos\app\src\main\AndroidManifest.xml:32:25-66
category#android.intent.category.LAUNCHER
ADDED from D:\Works Area\smartpos\app\src\main\AndroidManifest.xml:34:17-77
	android:name
		ADDED from D:\Works Area\smartpos\app\src\main\AndroidManifest.xml:34:27-74
activity#com.refresh.pos.ui.login.LoginActivity
ADDED from D:\Works Area\smartpos\app\src\main\AndroidManifest.xml:37:9-123
	android:screenOrientation
		ADDED from D:\Works Area\smartpos\app\src\main\AndroidManifest.xml:37:73-111
	android:name
		ADDED from D:\Works Area\smartpos\app\src\main\AndroidManifest.xml:37:19-72
activity#com.refresh.pos.ui.login.RegisterActivity
ADDED from D:\Works Area\smartpos\app\src\main\AndroidManifest.xml:38:9-125
	android:screenOrientation
		ADDED from D:\Works Area\smartpos\app\src\main\AndroidManifest.xml:38:76-113
	android:name
		ADDED from D:\Works Area\smartpos\app\src\main\AndroidManifest.xml:38:19-75
activity#com.refresh.pos.ui.sale.ClosingActivity
ADDED from D:\Works Area\smartpos\app\src\main\AndroidManifest.xml:39:9-124
	android:screenOrientation
		ADDED from D:\Works Area\smartpos\app\src\main\AndroidManifest.xml:39:74-112
	android:name
		ADDED from D:\Works Area\smartpos\app\src\main\AndroidManifest.xml:39:19-73
activity#com.refresh.pos.ui.sale.SalesActivity
ADDED from D:\Works Area\smartpos\app\src\main\AndroidManifest.xml:40:9-122
	android:screenOrientation
		ADDED from D:\Works Area\smartpos\app\src\main\AndroidManifest.xml:40:72-110
	android:name
		ADDED from D:\Works Area\smartpos\app\src\main\AndroidManifest.xml:40:19-71
activity#com.refresh.pos.ui.SinkronAllSales
ADDED from D:\Works Area\smartpos\app\src\main\AndroidManifest.xml:41:9-104
	android:screenOrientation
		ADDED from D:\Works Area\smartpos\app\src\main\AndroidManifest.xml:41:54-92
	android:name
		ADDED from D:\Works Area\smartpos\app\src\main\AndroidManifest.xml:41:19-53
activity#com.refresh.pos.ui.sale.TransactionSinkron
ADDED from D:\Works Area\smartpos\app\src\main\AndroidManifest.xml:42:9-112
	android:screenOrientation
		ADDED from D:\Works Area\smartpos\app\src\main\AndroidManifest.xml:42:62-100
	android:name
		ADDED from D:\Works Area\smartpos\app\src\main\AndroidManifest.xml:42:19-61
activity#com.refresh.pos.ui.sale.PrintzReport
ADDED from D:\Works Area\smartpos\app\src\main\AndroidManifest.xml:43:9-106
	android:screenOrientation
		ADDED from D:\Works Area\smartpos\app\src\main\AndroidManifest.xml:43:56-94
	android:name
		ADDED from D:\Works Area\smartpos\app\src\main\AndroidManifest.xml:43:19-55
activity#com.refresh.pos.ui.HomeActivity
ADDED from D:\Works Area\smartpos\app\src\main\AndroidManifest.xml:44:9-46:52
	android:screenOrientation
		ADDED from D:\Works Area\smartpos\app\src\main\AndroidManifest.xml:46:13-49
	android:name
		ADDED from D:\Works Area\smartpos\app\src\main\AndroidManifest.xml:45:13-59
activity#com.refresh.pos.ui.InventoryActivity
ADDED from D:\Works Area\smartpos\app\src\main\AndroidManifest.xml:47:9-49:52
	android:screenOrientation
		ADDED from D:\Works Area\smartpos\app\src\main\AndroidManifest.xml:49:13-49
	android:name
		ADDED from D:\Works Area\smartpos\app\src\main\AndroidManifest.xml:48:13-64
activity#com.refresh.pos.ui.AddProductActivity
ADDED from D:\Works Area\smartpos\app\src\main\AndroidManifest.xml:50:9-52:52
	android:screenOrientation
		ADDED from D:\Works Area\smartpos\app\src\main\AndroidManifest.xml:52:13-49
	android:name
		ADDED from D:\Works Area\smartpos\app\src\main\AndroidManifest.xml:51:13-65
activity#com.refresh.pos.ui.inventory.AddProductLotActivity
ADDED from D:\Works Area\smartpos\app\src\main\AndroidManifest.xml:53:9-55:52
	android:screenOrientation
		ADDED from D:\Works Area\smartpos\app\src\main\AndroidManifest.xml:55:13-49
	android:name
		ADDED from D:\Works Area\smartpos\app\src\main\AndroidManifest.xml:54:13-78
activity#com.refresh.pos.ui.inventory.ProductDetailActivity
ADDED from D:\Works Area\smartpos\app\src\main\AndroidManifest.xml:56:9-58:54
	android:screenOrientation
		ADDED from D:\Works Area\smartpos\app\src\main\AndroidManifest.xml:58:13-51
	android:name
		ADDED from D:\Works Area\smartpos\app\src\main\AndroidManifest.xml:57:13-78
activity#com.refresh.pos.ui.SaleActivity
ADDED from D:\Works Area\smartpos\app\src\main\AndroidManifest.xml:59:9-61:52
	android:screenOrientation
		ADDED from D:\Works Area\smartpos\app\src\main\AndroidManifest.xml:61:13-49
	android:name
		ADDED from D:\Works Area\smartpos\app\src\main\AndroidManifest.xml:60:13-59
activity#com.refresh.pos.ui.StockActivity
ADDED from D:\Works Area\smartpos\app\src\main\AndroidManifest.xml:62:9-64:52
	android:screenOrientation
		ADDED from D:\Works Area\smartpos\app\src\main\AndroidManifest.xml:64:13-49
	android:name
		ADDED from D:\Works Area\smartpos\app\src\main\AndroidManifest.xml:63:13-60
activity#com.refresh.pos.ui.SaleProductCatalog
ADDED from D:\Works Area\smartpos\app\src\main\AndroidManifest.xml:65:9-67:52
	android:screenOrientation
		ADDED from D:\Works Area\smartpos\app\src\main\AndroidManifest.xml:67:13-49
	android:name
		ADDED from D:\Works Area\smartpos\app\src\main\AndroidManifest.xml:66:13-65
activity#com.refresh.pos.ui.sale.SaleLedgerActivity
ADDED from D:\Works Area\smartpos\app\src\main\AndroidManifest.xml:68:9-70:52
	android:screenOrientation
		ADDED from D:\Works Area\smartpos\app\src\main\AndroidManifest.xml:70:13-49
	android:name
		ADDED from D:\Works Area\smartpos\app\src\main\AndroidManifest.xml:69:13-70
activity#org.achartengine.GraphicalActivity
ADDED from D:\Works Area\smartpos\app\src\main\AndroidManifest.xml:71:9-73:54
	android:screenOrientation
		ADDED from D:\Works Area\smartpos\app\src\main\AndroidManifest.xml:73:13-51
	android:name
		ADDED from D:\Works Area\smartpos\app\src\main\AndroidManifest.xml:72:13-62
activity#com.refresh.pos.ui.sale.SaleDetailActivity
ADDED from D:\Works Area\smartpos\app\src\main\AndroidManifest.xml:74:9-76:54
	android:screenOrientation
		ADDED from D:\Works Area\smartpos\app\src\main\AndroidManifest.xml:76:13-51
	android:name
		ADDED from D:\Works Area\smartpos\app\src\main\AndroidManifest.xml:75:13-70
activity#com.refresh.pos.ui.sale.SalesSync
ADDED from D:\Works Area\smartpos\app\src\main\AndroidManifest.xml:77:9-78:53
	android:screenOrientation
		ADDED from D:\Works Area\smartpos\app\src\main\AndroidManifest.xml:78:13-51
	android:name
		ADDED from D:\Works Area\smartpos\app\src\main\AndroidManifest.xml:77:19-52
activity#com.refresh.pos.ui.sale.halSinkron
ADDED from D:\Works Area\smartpos\app\src\main\AndroidManifest.xml:79:9-80:51
	android:screenOrientation
		ADDED from D:\Works Area\smartpos\app\src\main\AndroidManifest.xml:80:13-49
	android:name
		ADDED from D:\Works Area\smartpos\app\src\main\AndroidManifest.xml:79:19-53
